PGP - Candidate locations selection
…
           lad_name == "Newcastle-under-Lyme" ~ "Stoke",
           lad_name == "Stoke-on-Trent" ~ "Stoke",
           lad_name == "Sunderland" ~ "Sunderland",
           lad_name == "Neath Port Talbot" ~ "Swansea",
           lad_name == "Swansea" ~ "Swansea",
           lad_name == "Swindon" ~ "Swindon",
           lad_name == "Telford and Wrekin" ~ "Telford",
           lad_name == "Wakefield" ~ "Wakefield",
           lad_name == "Warrington" ~ "Warrington",
           lad_name == "Wigan" ~ "Wigan",
           lad_name == "Worthing" ~ "Worthing",
           lad_name == "York" ~ "York"
          ))

# A tibble: 372 × 8
   country_name lad_name         min_imd mean_imd median_imd max_imd count PUA  
   <chr>        <chr>              <dbl>    <dbl>      <dbl>   <dbl> <int> <chr>
 1 Wales        Blaenau Gwent         35      528        440    1462    47 <NA> 
 2 Wales        Merthyr Tydfil         7      617        576    1746    36 <NA> 
 3 Wales        Neath Port Talb…      25      728        617    1853    91 Swan…
 4 Wales        Rhondda Cynon T…       4      743        624    1907   154 <NA> 
 5 Wales        Caerphilly             3      816        719    1878   110 <NA> 
 6 Wales        Torfaen               40      850        731    1848    60 Newp…
 7 Wales        Newport               10      840        772    1890    95 Newp…
 8 Wales        Bridgend               5      927        819    1902    88 <NA> 
 9 Wales        Carmarthenshire       17      874        890    1792   103 <NA> 
10 Wales        Denbighshire           1      913        945    1887    52 <NA> 
# ℹ 362 more rows
…
